{
    "count": 367,
    "next": "http://127.0.0.1:8000/api/events/?page=2",
    "previous": null,
    "results": [
        {
            "id": 367,
            "title": "Concierto Acústico: Hollow Knight - Una Noche en Hallownest // Segunda Funcion 15:00 hrs",
            "link": "https://ticketplus.cl/events/concierto-acustico-hollow-knight-una-noche-en-hallownest-segunda-funcion-15-00-hrs",
            "date": "25 ABR | Desde: $19.550 CLP",
            "location": "Santiago",
            "category_general": null,
            "category_specific": null,
            "category": "Entradas Ticketplus",
            "image_url": "https://ticketing-uploads-1.ticketplus.global/images/thumbs/b17c62db0d560ebfd46f8b3175ba689f069c8a8f.png?1760975108",
            "source": "Ticketplus",
            "price_text": "Desde: $19.550 CLP",
            "created_at": "2025-10-22T08:32:14.563345-03:00",
            "updated_at": "2025-10-22T08:44:18.053265-03:00"
        },
        {
            "id": 366,
            "title": "Feuerschwanz",
            "link": "https://ticketplus.cl/events/feuerschwanz",
            "date": "21 ABR | Desde: $44.850 CLP",
            "location": "Santiago",
            "category_general": null,
            "category_specific": null,
            "category": "Entradas Ticketplus",
            "image_url": "https://ticketing-uploads-1.ticketplus.global/images/thumbs/a53efc40c5ccc98935c3ebe3c60109acababf997.png?1760468924",
            "source": "Ticketplus",
            "price_text": "Desde: $44.850 CLP",
            "created_at": "2025-10-22T08:32:14.552932-03:00",
            "updated_at": "2025-10-22T08:44:18.041319-03:00"
        },
        {
            "id": 365,
            "title": "Centimillimental",
            "link": "https://ticketplus.cl/events/centimillimental",
            "date": "27 FEB | Desde: $57.500 CLP",
            "location": "Santiago",
            "category_general": null,
            "category_specific": null,
            "category": "Entradas Ticketplus",
            "image_url": "https://ticketing-uploads-1.ticketplus.global/images/thumbs/1e606ff4847a4ea53ded601e139a08ab9c9c08d1.jpg?1754660867",
            "source": "Ticketplus",
            "price_text": "Desde: $57.500 CLP",
            "created_at": "2025-10-22T08:32:14.546169-03:00",
            "updated_at": "2025-10-22T08:44:18.030520-03:00"
        },
        {
            "id": 364,
            "title": "Centimillimental - 2da Fecha",
            "link": "https://ticketplus.cl/events/centimillimental-2da-Fecha",
            "date": "26 FEB | Desde: $57.500 CLP",
            "location": "Santiago",
            "category_general": null,
            "category_specific": null,
            "category": "Entradas Ticketplus",
            "image_url": "https://ticketing-uploads-1.ticketplus.global/images/thumbs/4e4ed961fbe4075d5baf834ad870133b192a3fae.jpg?1755179975",
            "source": "Ticketplus",
            "price_text": "Desde: $57.500 CLP",
            "created_at": "2025-10-22T08:32:14.540534-03:00",
            "updated_at": "2025-10-22T08:44:18.019278-03:00"
        },
        {
            "id": 363,
            "title": "Obituary 2026 - Santiago",
            "link": "https://ticketplus.cl/events/obituary-santiago",
            "date": "14 FEB | Desde: $40.250 CLP",
            "location": "Santiago",
            "category_general": null,
            "category_specific": null,
            "category": "Entradas Ticketplus",
            "image_url": "data:image/svg+xml,%3Csvg%20xmlns='http://www.w3.org/2000/svg'%20viewBox='0%200%203%202'%3E%3C/svg%3E",
            "source": "Ticketplus",
            "price_text": "Desde: $40.250 CLP",
            "created_at": "2025-10-22T08:32:14.535039-03:00",
            "updated_at": "2025-10-22T08:44:18.009019-03:00"
        },
        {
            "id": 362,
            "title": "Weather Systems",
            "link": "https://ticketplus.cl/events/weather-systems",
            "date": "04 FEB | Desde: $49.450 CLP",
            "location": "Santiago",
            "category_general": null,
            "category_specific": null,
            "category": "Entradas Ticketplus",
            "image_url": "data:image/svg+xml,%3Csvg%20xmlns='http://www.w3.org/2000/svg'%20viewBox='0%200%203%202'%3E%3C/svg%3E",
            "source": "Ticketplus",
            "price_text": "Desde: $49.450 CLP",
            "created_at": "2025-10-22T08:32:14.529843-03:00",
            "updated_at": "2025-10-22T08:44:17.998257-03:00"
        },
        {
            "id": 361,
            "title": "RE-PRODUCIRSE",
            "link": "https://ticketplus.cl/events/re-producirse-FITAM2026",
            "date": "24 ENE al 25 January | Desde: $7.628 CLP",
            "location": "Providencia",
            "category_general": null,
            "category_specific": null,
            "category": "Entradas Ticketplus",
            "image_url": "data:image/svg+xml,%3Csvg%20xmlns='http://www.w3.org/2000/svg'%20viewBox='0%200%203%202'%3E%3C/svg%3E",
            "source": "Ticketplus",
            "price_text": "Desde: $7.628 CLP",
            "created_at": "2025-10-22T08:32:14.523948-03:00",
            "updated_at": "2025-10-22T08:44:17.987193-03:00"
        },
        {
            "id": 360,
            "title": "SUMAR, ARCHIVOS DEL FRACASO",
            "link": "https://ticketplus.cl/events/sumar-FITAM2026",
            "date": "24 ENE al 25 January | Desde: $6.357 CLP",
            "location": "Santiago",
            "category_general": null,
            "category_specific": null,
            "category": "Entradas Ticketplus",
            "image_url": "data:image/svg+xml,%3Csvg%20xmlns='http://www.w3.org/2000/svg'%20viewBox='0%200%203%202'%3E%3C/svg%3E",
            "source": "Ticketplus",
            "price_text": "Desde: $6.357 CLP",
            "created_at": "2025-10-22T08:32:14.518300-03:00",
            "updated_at": "2025-10-22T08:44:17.975796-03:00"
        },
        {
            "id": 359,
            "title": "PAINECUR",
            "link": "https://ticketplus.cl/events/painecur-FITAM2026",
            "date": "24 ENE al 25 January | Desde: $5.086 CLP",
            "location": "Recoleta",
            "category_general": null,
            "category_specific": null,
            "category": "Entradas Ticketplus",
            "image_url": "data:image/svg+xml,%3Csvg%20xmlns='http://www.w3.org/2000/svg'%20viewBox='0%200%203%202'%3E%3C/svg%3E",
            "source": "Ticketplus",
            "price_text": "Desde: $5.086 CLP",
            "created_at": "2025-10-22T08:32:14.513170-03:00",
            "updated_at": "2025-10-22T08:44:17.963408-03:00"
        },
        {
            "id": 358,
            "title": "EL NIÑO DE LOS FOSILES",
            "link": "https://ticketplus.cl/events/el-nino-de-los-fosiles-FITAM2026",
            "date": "24 ENE al 25 January | Desde: $6.357 CLP",
            "location": "Providencia",
            "category_general": null,
            "category_specific": null,
            "category": "Entradas Ticketplus",
            "image_url": "data:image/svg+xml,%3Csvg%20xmlns='http://www.w3.org/2000/svg'%20viewBox='0%200%203%202'%3E%3C/svg%3E",
            "source": "Ticketplus",
            "price_text": "Desde: $6.357 CLP",
            "created_at": "2025-10-22T08:32:14.507501-03:00",
            "updated_at": "2025-10-22T08:44:17.951312-03:00"
        },
        {
            "id": 357,
            "title": "MAM",
            "link": "https://ticketplus.cl/events/mam-FITAM2026",
            "date": "23 ENE al 25 January | Desde: $19.071 CLP",
            "location": "Las Condes",
            "category_general": null,
            "category_specific": null,
            "category": "Entradas Ticketplus",
            "image_url": "data:image/svg+xml,%3Csvg%20xmlns='http://www.w3.org/2000/svg'%20viewBox='0%200%203%202'%3E%3C/svg%3E",
            "source": "Ticketplus",
            "price_text": "Desde: $19.071 CLP",
            "created_at": "2025-10-22T08:32:14.501014-03:00",
            "updated_at": "2025-10-22T08:44:17.941265-03:00"
        },
        {
            "id": 356,
            "title": "VIENTO BLANCO",
            "link": "https://ticketplus.cl/events/viento-blanco-FITAM2026",
            "date": "23 ENE al 25 January | Desde: $7.628 CLP",
            "location": "Estación Central",
            "category_general": null,
            "category_specific": null,
            "category": "Entradas Ticketplus",
            "image_url": "data:image/svg+xml,%3Csvg%20xmlns='http://www.w3.org/2000/svg'%20viewBox='0%200%203%202'%3E%3C/svg%3E",
            "source": "Ticketplus",
            "price_text": "Desde: $7.628 CLP",
            "created_at": "2025-10-22T08:32:14.495328-03:00",
            "updated_at": "2025-10-22T08:44:17.929400-03:00"
        },
        {
            "id": 355,
            "title": "EXISTEN MUCHAS FORMAS DE LLEGAR A LA COSTA",
            "link": "https://ticketplus.cl/events/existen-muchas-formas-de-llegar-a-la-costa-FITAM2026",
            "date": "23 ENE al 24 January | Desde: $7.628 CLP",
            "location": "Santiago",
            "category_general": null,
            "category_specific": null,
            "category": "Entradas Ticketplus",
            "image_url": "data:image/svg+xml,%3Csvg%20xmlns='http://www.w3.org/2000/svg'%20viewBox='0%200%203%202'%3E%3C/svg%3E",
            "source": "Ticketplus",
            "price_text": "Desde: $7.628 CLP",
            "created_at": "2025-10-22T08:32:14.489799-03:00",
            "updated_at": "2025-10-22T08:44:17.918364-03:00"
        },
        {
            "id": 354,
            "title": "ÜTRUF TRIPAY",
            "link": "https://ticketplus.cl/events/utruf-tripay-FITAM2026",
            "date": "22 ENE al 24 January | Desde: $7.628 CLP",
            "location": "Ñuñoa",
            "category_general": null,
            "category_specific": null,
            "category": "Entradas Ticketplus",
            "image_url": "data:image/svg+xml,%3Csvg%20xmlns='http://www.w3.org/2000/svg'%20viewBox='0%200%203%202'%3E%3C/svg%3E",
            "source": "Ticketplus",
            "price_text": "Desde: $7.628 CLP",
            "created_at": "2025-10-22T08:32:14.484734-03:00",
            "updated_at": "2025-10-22T08:44:17.907171-03:00"
        },
        {
            "id": 353,
            "title": "ESTAMPIDA HUMANA",
            "link": "https://ticketplus.cl/events/estampida-humana-FITAM2026",
            "date": "22 ENE al 25 January | Desde: $6.357 CLP",
            "location": "Estación Central",
            "category_general": null,
            "category_specific": null,
            "category": "Entradas Ticketplus",
            "image_url": "data:image/svg+xml,%3Csvg%20xmlns='http://www.w3.org/2000/svg'%20viewBox='0%200%203%202'%3E%3C/svg%3E",
            "source": "Ticketplus",
            "price_text": "Desde: $6.357 CLP",
            "created_at": "2025-10-22T08:32:14.477451-03:00",
            "updated_at": "2025-10-22T08:44:17.895477-03:00"
        },
        {
            "id": 352,
            "title": "LA FUNDACION: NEGACIONISMO Y DISPUTA DE LA VERDAD EN CHILE",
            "link": "https://ticketplus.cl/events/la-fundacion-2026-01-22-20-00-00-0300",
            "date": "22 ENE al 24 January | Desde: $5.086 CLP",
            "location": "Santiago",
            "category_general": null,
            "category_specific": null,
            "category": "Entradas Ticketplus",
            "image_url": "data:image/svg+xml,%3Csvg%20xmlns='http://www.w3.org/2000/svg'%20viewBox='0%200%203%202'%3E%3C/svg%3E",
            "source": "Ticketplus",
            "price_text": "Desde: $5.086 CLP",
            "created_at": "2025-10-22T08:32:14.471684-03:00",
            "updated_at": "2025-10-22T08:44:17.884236-03:00"
        },
        {
            "id": 351,
            "title": "TENGO MIEDO TORERO",
            "link": "https://ticketplus.cl/events/tengo-miedo-torero-FITAM2026",
            "date": "22 ENE al 24 January | Desde: $11.443 CLP",
            "location": "Santiago",
            "category_general": null,
            "category_specific": null,
            "category": "Entradas Ticketplus",
            "image_url": "data:image/svg+xml,%3Csvg%20xmlns='http://www.w3.org/2000/svg'%20viewBox='0%200%203%202'%3E%3C/svg%3E",
            "source": "Ticketplus",
            "price_text": "Desde: $11.443 CLP",
            "created_at": "2025-10-22T08:32:14.464472-03:00",
            "updated_at": "2025-10-22T08:44:17.874386-03:00"
        },
        {
            "id": 350,
            "title": "EL RINCON DE LOS MUERTOS",
            "link": "https://ticketplus.cl/events/el-rincon-de-los-muertos-fitam2026",
            "date": "22 ENE al 23 January | Desde: $5.298 CLP",
            "location": "Recoleta",
            "category_general": null,
            "category_specific": null,
            "category": "Entradas Ticketplus",
            "image_url": "data:image/svg+xml,%3Csvg%20xmlns='http://www.w3.org/2000/svg'%20viewBox='0%200%203%202'%3E%3C/svg%3E",
            "source": "Ticketplus",
            "price_text": "Desde: $5.298 CLP",
            "created_at": "2025-10-22T08:32:14.457590-03:00",
            "updated_at": "2025-10-22T08:44:17.863957-03:00"
        },
        {
            "id": 349,
            "title": "MUTE",
            "link": "https://ticketplus.cl/events/mute-FITAM2026",
            "date": "21 ENE al 23 January | Desde: $5.086 CLP",
            "location": "Providencia",
            "category_general": null,
            "category_specific": null,
            "category": "Entradas Ticketplus",
            "image_url": "data:image/svg+xml,%3Csvg%20xmlns='http://www.w3.org/2000/svg'%20viewBox='0%200%203%202'%3E%3C/svg%3E",
            "source": "Ticketplus",
            "price_text": "Desde: $5.086 CLP",
            "created_at": "2025-10-22T08:32:14.451006-03:00",
            "updated_at": "2025-10-22T08:44:17.851796-03:00"
        },
        {
            "id": 348,
            "title": "YACIMIENTO",
            "link": "https://ticketplus.cl/events/yacimiento-FITAM2026",
            "date": "21 ENE al 23 January | Desde: $5.086 CLP",
            "location": "Santiago",
            "category_general": null,
            "category_specific": null,
            "category": "Entradas Ticketplus",
            "image_url": "data:image/svg+xml,%3Csvg%20xmlns='http://www.w3.org/2000/svg'%20viewBox='0%200%203%202'%3E%3C/svg%3E",
            "source": "Ticketplus",
            "price_text": "Desde: $5.086 CLP",
            "created_at": "2025-10-22T08:32:14.443264-03:00",
            "updated_at": "2025-10-22T08:44:17.830733-03:00"
        }
    ]
}